WIDTH: 5
HEIGHT: 8 ; This is a comment (until the end of line)
XADVANCE: 6
YADVANCE: 8
BITPATH:LEFT_TO_RIGHT,BOTTOM_UP,VERTICAL,ALIGNED

==== ; Header/Data separator

0x31
..#..
.##..
#.#..
..#..
..#..
#####
.....
.....

0x32
.###.
#...#
...#.
..#..
.#...
#####
.....
.....

0x33
.###.
#...#
..##.
...#.
#...#
.###.
.....
.....

0x34
.#..#
#...#
#####
....#
....#
....#
.....
.....

0x35
#####
#....
####.
....#
....#
####.
.....
.....

0x36
.####
#....
####.
#...#
#...#
.###.
.....
.....

0x37
#####
....#
....#
...#.
...#.
..#..
.....
.....

0x38
.###.
#...#
#...#
.###.
#...#
#...#
.###.
.....

0x39
.###.
#...#
#...#
.####
....#
####.
.....
.....

0x30
.###.
#...#
#...#
#...#
#...#
.###.
.....
.....

0x41
..#..
.###.
.#.#.
#...#
#####
#...#
.....
.....

0x42
###..
#..#.
#...#
####.
#...#
####.
.....
.....

0x3A
.....
.....
..#..
.....
.....
..#..
.....
.....

0x2D
.....
.....
.....
#####
.....
.....
.....
.....


0x2E
.....
.....
.....
.....
.....
..#..
..#..
.....

0x20
.....
.....
.....
.....
.....
.....
.....
.....

0x3E
.....
.##..
...#.
....#
...#.
.##..
.....
.....
